<?xml version="1.0" encoding="utf-8"?>
<!-- Generator: Adobe Illustrator 17.0.1, SVG Export Plug-In . SVG Version: 6.00 Build 0)  -->
<!DOCTYPE svg PUBLIC "-//W3C//DTD SVG 1.1//EN" "http://www.w3.org/Graphics/SVG/1.1/DTD/svg11.dtd">
<svg version="1.1" id="Слой_1" xmlns="http://www.w3.org/2000/svg" xmlns:xlink="http://www.w3.org/1999/xlink" x="0px" y="0px"
	 width="30px" height="53.5px" viewBox="0 0 30 53.5" enable-background="new 0 0 30 53.5" xml:space="preserve">
<image overflow="visible" width="60" height="107" id="Rounded_Rectangle_1_xA0_Изображение" xlink:href="77716DBF.png"  transform="matrix(0.5 0 0 0.5 0.5 0.5)">
</image>
<g id="Shape_2">
	<g>
		<polygon fill-rule="evenodd" clip-rule="evenodd" fill="#800000018000000180000001" points="16.409,31.786 16.409,14.995 
			15.179,14.995 15.179,31.812 11.995,31.458 15.751,39.006 19.505,31.458 		"/>
	</g>
	<g>
		<polygon fill="none" stroke="#FFFFFF" stroke-miterlimit="10" points="16.409,31.786 16.409,14.995 15.179,14.995 15.179,31.812 
			11.995,31.458 15.751,39.006 19.505,31.458 		"/>
	</g>
</g>
</svg>
